<?xml version="1.0" encoding="utf-8"?>
<!-- Generator: Adobe Illustrator 20.0.0, SVG Export Plug-In . SVG Version: 6.00 Build 0)  -->
<svg version="1.1" id="Layer_1" xmlns="http://www.w3.org/2000/svg" xmlns:xlink="http://www.w3.org/1999/xlink" x="0px" y="0px"
	 viewBox="0 0 512 512" style="enable-background:new 0 0 512 512;" xml:space="preserve">
<style type="text/css">
	.st0{fill:#A7D08A;}
</style>
<path class="st0" d="M424,127.4c-1.8-6.8-5.5-14.1-8.3-20.5C383,28.2,311.4,0,253.6,0C176.2,0,91,51.9,79.6,158.8v21.8
	c0,0.9,0.3,9.1,0.8,13.2C86.8,244.8,127,299,157,350c32.3,54.6,65.8,108.3,99.1,162c20.5-35,40.9-70.5,60.9-104.7
	c5.5-10,11.8-20,17.2-29.6c3.6-6.4,10.6-12.7,13.8-18.7c32.3-59.2,84.3-118.8,84.3-177.5v-24.1C432.4,151.1,424.5,128.8,424,127.4
	L424,127.4z M255,237.1c-22.7,0-47.6-11.4-59.9-42.8c-1.8-5-1.7-15-1.7-15.9v-14.1c0-40,34-58.2,63.6-58.2
	c36.4,0,64.6,29.1,64.6,65.5C321.6,208,291.4,237.1,255,237.1L255,237.1z"/>
</svg>
